idAdherent,Nom,Prenom,DateNais,Sexe,Adresse,DateCertifValid,NomClub
2016001,"Dupont","Alice",01/01/1995,"F","28 rue du boulevard Lyon", 01/01/2019, "ClubLyon"
2016002,"Dupout","Bernard",01/01/1950,"H","2 rue du avenue Lyon", 01/09/2018, "ClubLyon"
2016003,"Durand","Olivier",01/01/1955,"H","7 rue du avenue Paris", 01/09/2017, "ClubParis"
2016004,"Drand","Mat",01/01/1975,"H","7 rue du avenue Paris", 10/09/2017, "ClubParis"
2016005,"Durad","Louis",01/01/1971,"H","7 rue du avenue Paris", 21/09/2017, "ClubParis"
2016006,"Drad","Louise",01/01/2000,"F","7 rue du avenue Paris", 01/08/2017, "ClubParis"
2016007,"Rasde","nico",01/07/1955,"H","7 rue du avenue Paris", 01/09/2017, "ClubParis"
2016008,"Polain","Chris",01/01/1899,"H","7 rue du avenue Paris", 01/09/2019, "ClubParis"
2017001,"Paso","Bruno",01/01/1970,"H","28 rue du avenue Paris", 21/09/2018, "ClubParis"
2017002,"Paso","Celine",01/01/1970,"F","28 rue du avenue Lyons", 21/09/2018, "ClubLyon"
2017003,"Durand","Celine",01/01/1975,"F","28 rue du avenue Paris", 21/09/2018, "ClubParis"
2017004,"Tuile","Mathilde",01/01/1999,"F","28 rue du avenue Paris", 21/09/2018, "ClubParis"
2017005,"Roli","Lou",01/01/2010,"F","28 rue du avenue Paris", 21/09/2018, "ClubParis"
2017006,"Roula","Celine",01/01/2001,"F","28 rue du avenue Paris", 21/09/2018, "ClubParis"
2018001,"Laple","Marie",01/01/1989,"F","28 rue du avenue Lyon", 11/09/2018, "ClubLyon"
2018002,"Laplo","Bernard",01/01/2000,"H","15 rue du avenue Lyon", 01/07/2018, "ClubLyon"
2018003,"Oplia","Blandine",01/01/1899,"F","17 rue du rue Lyon", 01/12/2018, "ClubLyon"
2018004,"Horil","Manu",01/01/1963,"H","28 rue du avenue Lyon", 01/12/2018, "ClubLyon"
2018005,"Plios","Caroline",01/01/1978,"F","28 rue du avenue Lyon", 01/09/2018, "ClubLyon"
