dossard,rang,nom,prenom,sexe
2017000000,1.0,NSP,IEW,F
2017000001,2.0,Polain,Chris,H
2017000002,3.0,YUE,EGY,F
2017000003,4.0,FWC,BLH,F
2017000004,5.0,DNH,ZQO,H
2017000005,6.0,IYI,SCJ,H
2017000006,7.0,Laplo,Bernard,H
2017000007,8.0,Dupont,Alice,F
2017000008,9.0,AKH,SEY,H
2017000009,10.0,MHH,WME,H
2017000010,11.0,JKF,BCQ,F
2017000011,12.0,WVJ,JFX,H
2017000012,13.0,WUW,JIX,H
2017000013,14.0,Roula,Celine,F
2017000014,15.0,Tuile,Mathilde,F
